{
    "course/2021_1": {
        "catalog_visibility": "about",
        "cert_html_view_enabled": true,
        "course_visibility": "public",
        "discussion_topics": {
            "General": {
                "id": "course"
            }
        },
        "display_name": "Contributing to Free/Libre and Open Source Software ",
        "instructor_info": {
            "instructors": []
        },
        "language": "en",
        "learning_info": [],
        "start": "2021-01-01T00:00:00Z",
        "tabs": [
            {
                "course_staff_only": false,
                "name": "Home",
                "type": "course_info"
            },
            {
                "course_staff_only": false,
                "name": "Course",
                "type": "courseware"
            },
            {
                "course_staff_only": false,
                "name": "Textbooks",
                "type": "textbooks"
            },
            {
                "course_staff_only": false,
                "name": "Discussion",
                "type": "discussion"
            },
            {
                "course_staff_only": false,
                "name": "Wiki",
                "type": "wiki"
            },
            {
                "course_staff_only": false,
                "name": "Progress",
                "type": "progress"
            }
        ],
        "xml_attributes": {
            "filename": [
                "course/2021_1.xml",
                "course/2021_1.xml"
            ]
        }
    }
}